6 Linear Model Selection and Regularization | An Introduction to Statistical Learning with the tidyverse
…
The predict() function also takes a penalty argument:

predict(hitters_ridge_fit, penalty = 50, new_data = hitters)

## # A tibble: 263 x 1
##     .pred
##     <dbl>
##  1  468. 
##  2  663. 
##  3 1023. 
##  4  506. 
##  5  550. 
##  6  200. 
##  7   79.6
##  8  105. 
##  9  836. 
## 10  864. 
## # ... with 253 more rows
…
The full list of metrics can be collected like this:

collect_metrics(hitters_ridge_tune)

## # A tibble: 200 x 7
##    penalty .metric .estimator    mean     n std_err .config               
##      <dbl> <chr>   <chr>        <dbl> <int>   <dbl> <chr>                 
##  1  0.01   rmse    standard   320.       10 27.9    Preprocessor1_Model001
##  2  0.01   rsq     standard     0.540    10  0.0739 Preprocessor1_Model001
##  3  0.0132 rmse    standard   320.       10 27.9    Preprocessor1_Model002
##  4  0.0132 rsq     standard     0.540    10  0.0739 Preprocessor1_Model002
##  5  0.0175 rmse    standard   320.       10 27.9    Preprocessor1_Model003
##  6  0.0175 rsq     standard     0.540    10  0.0739 Preprocessor1_Model003
##  7  0.0231 rmse    standard   320.       10 27.9    Preprocessor1_Model004
##  8  0.0231 rsq     standard     0.540    10  0.0739 Preprocessor1_Model004
##  9  0.0305 rmse    standard   320.       10 27.9    Preprocessor1_Model005
## 10  0.0305 rsq     standard     0.540    10  0.0739 Preprocessor1_Model005
## # ... with 190 more rows
…
