5 Resampling Methods | An Introduction to Statistical Learning with the tidyverse
…
The LOOCV approach has a few advantages over the validation set approach:

First, it has far less bias. In LOOCV, we repeatedly fit the statistical learning method using training sets that contain \(n − 1\) observations, almost as many as are in the entire data set. This is in contrast to the validation set approach, in which the training set is typically around half the size of the original data set. Consequently, the LOOCV approach tends not to overestimate the test error rate as much as the validation set approach does.

Second, in contrast to the validation approach which will yield different results when applied repeatedly due to randomness in the training/validation set splits, performing LOOCV multiple times will always yield the same results: there is no randomness in the training/validation set splits.

Define a new function to split the data by LOOCV:2

auto_splits <- loo_cv(auto)
auto_splits

## # Leave-one-out cross-validation 
## # A tibble: 392 x 2
##    splits          id        
##    <list>          <chr>     
##  1 <split [391/1]> Resample1 
##  2 <split [391/1]> Resample2 
##  3 <split [391/1]> Resample3 
##  4 <split [391/1]> Resample4 
##  5 <split [391/1]> Resample5 
##  6 <split [391/1]> Resample6 
##  7 <split [391/1]> Resample7 
##  8 <split [391/1]> Resample8 
##  9 <split [391/1]> Resample9 
## 10 <split [391/1]> Resample10
## # ... with 382 more rows
…
For Figure 5.10, I first simulate 1000 data sets from the true population and estimate \(\alpha\) for each:

d <- bind_rows(
  d4 %>% distinct(sim, alpha),
  tibble(sim = 5:1000) %>%
    rowwise() %>%
    mutate(alpha = sim_alpha()) %>%
    ungroup()
)
d

## # A tibble: 1,000 x 2
##      sim alpha
##    <int> <dbl>
##  1     1 0.392
##  2     2 0.653
##  3     3 0.58 
##  4     4 0.635
##  5     5 0.604
##  6     6 0.680
##  7     7 0.648
##  8     8 0.662
##  9     9 0.674
## 10    10 0.597
## # ... with 990 more rows

And then, using just the first simulated data set, use the rsample::boostraps() function to generate 1000 bootstrap resamples:

d1_boot <- d4 %>% filter(sim == 1) %>% select(x, y) %>%
  rsample::bootstraps(times = 1000)
d1_boot

## # Bootstrap sampling 
## # A tibble: 1,000 x 2
##    splits           id           
##    <list>           <chr>        
##  1 <split [100/34]> Bootstrap0001
##  2 <split [100/37]> Bootstrap0002
##  3 <split [100/43]> Bootstrap0003
##  4 <split [100/34]> Bootstrap0004
##  5 <split [100/38]> Bootstrap0005
##  6 <split [100/37]> Bootstrap0006
##  7 <split [100/36]> Bootstrap0007
##  8 <split [100/37]> Bootstrap0008
##  9 <split [100/36]> Bootstrap0009
## 10 <split [100/41]> Bootstrap0010
## # ... with 990 more rows
…
## [1] 0.09040623

xy <- portfolio_boot$splits[[1]]
xy <- as.data.frame(xy)

5.3.4.2 Estimating the Accuracy of a Regression Model

The bootstrap approach can be used to assess the variability of the coefficient estimates and predictions from a statistical learning method. Here we use the bootstrap approach in order to assess the variability of the estimates for \(\beta_0\) and \(\beta_1\), the intercept and slope terms for the linear regression model that uses horsepower to predict mpg in the Auto data set. We will compare the estimates obtained using the bootstrap to those obtained using the formulas for \(\text{SE}(\hat{\beta}_0)\) and \(\text{SE}(\hat{\beta}_1)\) described in Section 3.1.2.

auto_boot <- rsample::bootstraps(auto, times = 1000)
auto_boot

## # Bootstrap sampling 
## # A tibble: 1,000 x 2
##    splits            id           
##    <list>            <chr>        
##  1 <split [392/146]> Bootstrap0001
##  2 <split [392/154]> Bootstrap0002
##  3 <split [392/140]> Bootstrap0003
##  4 <split [392/148]> Bootstrap0004
##  5 <split [392/129]> Bootstrap0005
##  6 <split [392/143]> Bootstrap0006
##  7 <split [392/140]> Bootstrap0007
##  8 <split [392/143]> Bootstrap0008
##  9 <split [392/142]> Bootstrap0009
## 10 <split [392/140]> Bootstrap0010
## # ... with 990 more rows
…
tic()
auto_boot_fit <- workflow() %>%
  add_model(linear_reg()) %>%
  add_recipe(recipe(mpg ~ horsepower, data = auto)) %>%
  fit_resamples(auto_boot, control = tidy_ctrl)
toc()

## 81.84 sec elapsed

auto_boot_fit

## # Resampling results
## # Bootstrap sampling 
## # A tibble: 1,000 x 5
##    splits            id            .metrics         .notes           .extracts  
##    <list>            <chr>         <list>           <list>           <list>     
##  1 <split [392/146]> Bootstrap0001 <tibble [2 x 4]> <tibble [0 x 1]> <tibble [1~
##  2 <split [392/154]> Bootstrap0002 <tibble [2 x 4]> <tibble [0 x 1]> <tibble [1~
##  3 <split [392/140]> Bootstrap0003 <tibble [2 x 4]> <tibble [0 x 1]> <tibble [1~
##  4 <split [392/148]> Bootstrap0004 <tibble [2 x 4]> <tibble [0 x 1]> <tibble [1~
##  5 <split [392/129]> Bootstrap0005 <tibble [2 x 4]> <tibble [0 x 1]> <tibble [1~
##  6 <split [392/143]> Bootstrap0006 <tibble [2 x 4]> <tibble [0 x 1]> <tibble [1~
##  7 <split [392/140]> Bootstrap0007 <tibble [2 x 4]> <tibble [0 x 1]> <tibble [1~
##  8 <split [392/143]> Bootstrap0008 <tibble [2 x 4]> <tibble [0 x 1]> <tibble [1~
##  9 <split [392/142]> Bootstrap0009 <tibble [2 x 4]> <tibble [0 x 1]> <tibble [1~
## 10 <split [392/140]> Bootstrap0010 <tibble [2 x 4]> <tibble [0 x 1]> <tibble [1~
## # ... with 990 more rows
…
## # A tibble: 1 x 2
##   .extracts        .config             
##   <list>           <chr>               
## 1 <tibble [2 x 5]> Preprocessor1_Model1

# Using `unnest` to get all `.extracts`
auto_boot_fit_coefs <- auto_boot_fit %>%
  unnest(.extracts) %>%
  unnest(.extracts) %>%
  select(id, term, estimate, std.error)
auto_boot_fit_coefs

## # A tibble: 2,000 x 4
##    id            term        estimate std.error
##    <chr>         <chr>          <dbl>     <dbl>
##  1 Bootstrap0001 (Intercept)   41.7     0.734  
##  2 Bootstrap0001 horsepower    -0.174   0.00655
##  3 Bootstrap0002 (Intercept)   39.3     0.683  
##  4 Bootstrap0002 horsepower    -0.153   0.00620
##  5 Bootstrap0003 (Intercept)   39.3     0.703  
##  6 Bootstrap0003 horsepower    -0.153   0.00624
##  7 Bootstrap0004 (Intercept)   39.4     0.738  
##  8 Bootstrap0004 horsepower    -0.154   0.00667
##  9 Bootstrap0005 (Intercept)   38.1     0.698  
## 10 Bootstrap0005 horsepower    -0.144   0.00617
## # ... with 1,990 more rows
…
